Lab2/display.vcd
$scope module SevenSegmentDisplay $end
$var wire 5 ! values0 $end
$var wire 6 " cs0 $end
$var wire 7 # abcdefg0 $end
$var wire 4 $ value $end
$var wire 7 % abcdefg1 $end
$var wire 1 & enable $end
$var wire 1 ' ce $end
$var wire 7 ( counter $end
$var wire 6 ) cs1 $end
$var wire 1 * sys_clk $end
$var wire 5 + values4 $end
$var wire 5 , values5 $end
$var wire 5 - values1 $end
$var wire 5 . values3 $end
$var wire 5 / values2 $end
$enddefinitions $end
$dumpvars
$end
#0
b00000 !
b000000 "
b0000000 #
b0000 $
b0000000 %
1&
0'
b0000000 (
b000001 )
0*
1'
b000001 "
b0111111 #
b0111111 %
#5
b00100 +
b00101 ,
0'
b1100011 (
b00001 -
b00011 .
b00010 /
1*
#10
0*
#15
b00101 +
b00110 ,
b0000000 #
b0001 $
b0000000 %
b1100010 (
b00001 !
b00010 -
b00100 .
b00011 /
1*
#20
0*
#25
b00110 +
b00111 ,
b0010 $
b1100001 (
b00010 !
b00011 -
b00101 .
b00100 /
1*
#30
0*
#35
b00111 +
b01000 ,
b0011 $
b1100000 (
b00011 !
b00100 -
b00110 .
b00101 /
1*
#40
0*
#45
b01000 +
b01001 ,
b0100 $
b1011111 (
b00100 !
b00101 -
b00111 .
b00110 /
1*
#50
0*
#55
b01001 +
b01010 ,
b0101 $
b1011110 (
b00101 !
b00110 -
b01000 .
b00111 /
1*
#60
0*
#65
b01010 +
b01011 ,
b0110 $
b1011101 (
b00110 !
b00111 -
b01001 .
b01000 /
1*
#70
0*
#75
b01011 +
b01100 ,
b0111 $
b1011100 (
b00111 !
b01000 -
b01010 .
b01001 /
1*
#80
0*
#85
b01100 +
b01101 ,
b1000 $
b1011011 (
b01000 !
b01001 -
b01011 .
b01010 /
1*
#90
0*
#95
b01101 +
b01110 ,
b1001 $
b1011010 (
b01001 !
b01010 -
b01100 .
b01011 /
1*
#100
0*
#105
b01110 +
b01111 ,
b1010 $
b1011001 (
b01010 !
b01011 -
b01101 .
b01100 /
1*
#110
0*
#115
b01111 +
b10000 ,
b1011 $
b1011000 (
b01011 !
b01100 -
b01110 .
b01101 /
1*
#120
0*
#125
b10000 +
b10001 ,
b1100 $
b1010111 (
b01100 !
b01101 -
b01111 .
b01110 /
1*
#130
0*
#135
b10001 +
b10010 ,
b1101 $
b1010110 (
b01101 !
b01110 -
b10000 .
b01111 /
1*
#140
0*
#145
b10010 +
b10011 ,
b1110 $
b1010101 (
b01110 !
b01111 -
b10001 .
b10000 /
1*
#150
0*
#155
b10011 +
b10100 ,
b1111 $
b1010100 (
b01111 !
b10000 -
b10010 .
b10001 /
1*
#160
0*
#165
b10100 +
b10101 ,
b0111111 #
b0000 $
b0111111 %
b1010011 (
b10000 !
b10001 -
b10011 .
b10010 /
1*
#170
0*
#175
b10101 +
b10110 ,
b0000000 #
b0001 $
b0000000 %
b1010010 (
b10001 !
b10010 -
b10100 .
b10011 /
1*
#180
0*
#185
b10110 +
b10111 ,
b0010 $
b1010001 (
b10010 !
b10011 -
b10101 .
b10100 /
1*
#190
0*
#195
b10111 +
b11000 ,
b0011 $
b1010000 (
b10011 !
b10100 -
b10110 .
b10101 /
1*
#200
0*
#205
b11000 +
b11001 ,
b0100 $
b1001111 (
b10100 !
b10101 -
b10111 .
b10110 /
1*
#210
0*
#215
b11001 +
b11010 ,
b0101 $
b1001110 (
b10101 !
b10110 -
b11000 .
b10111 /
1*
#220
0*
#225
b11010 +
b11011 ,
b0110 $
b1001101 (
b10110 !
b10111 -
b11001 .
b11000 /
1*
#230
0*
#235
b11011 +
b11100 ,
b0111 $
b1001100 (
b10111 !
b11000 -
b11010 .
b11001 /
1*
#240
0*
#245
b11100 +
b11101 ,
b1000 $
b1001011 (
b11000 !
b11001 -
b11011 .
b11010 /
1*
#250
0*
#255
b11101 +
b11110 ,
b1001 $
b1001010 (
b11001 !
b11010 -
b11100 .
b11011 /
1*
#260
0*
#265
b11110 +
b11111 ,
b1010 $
b1001001 (
b11010 !
b11011 -
b11101 .
b11100 /
1*
#270
0*
#275
b11111 +
b00000 ,
b1011 $
b1001000 (
b11011 !
b11100 -
b11110 .
b11101 /
1*
#280
0*
#285
b00000 +
b00001 ,
b1100 $
b1000111 (
b11100 !
b11101 -
b11111 .
b11110 /
1*
#290
0*
#295
b00001 +
b00010 ,
b1101 $
b1000110 (
b11101 !
b11110 -
b00000 .
b11111 /
1*
#300
0*
#305
b00010 +
b00011 ,
b1110 $
b1000101 (
b11110 !
b11111 -
b00001 .
b00000 /
1*
#310
0*
#315
b00011 +
b00100 ,
b1111 $
b1000100 (
b11111 !
b00000 -
b00010 .
b00001 /
1*
#320
0*
#325
b00100 +
b00101 ,
b0111111 #
b0000 $
b0111111 %
b1000011 (
b00000 !
b00001 -
b00011 .
b00010 /
1*
#330
0*
#335
b00101 +
b00110 ,
b0000000 #
b0001 $
b0000000 %
b1000010 (
b00001 !
b00010 -
b00100 .
b00011 /
1*
#340
0*
#345
b00110 +
b00111 ,
b0010 $
b1000001 (
b00010 !
b00011 -
b00101 .
b00100 /
1*
#350
0*
#355
b00111 +
b01000 ,
b0011 $
b1000000 (
b00011 !
b00100 -
b00110 .
b00101 /
1*
#360
0*
#365
b01000 +
b01001 ,
b0100 $
b0111111 (
b00100 !
b00101 -
b00111 .
b00110 /
1*
#370
0*
#375
b01001 +
b01010 ,
b0101 $
b0111110 (
b00101 !
b00110 -
b01000 .
b00111 /
1*
#380
0*
#385
b01010 +
b01011 ,
b0110 $
b0111101 (
b00110 !
b00111 -
b01001 .
b01000 /
1*
#390
0*
#395
b01011 +
b01100 ,
b0111 $
b0111100 (
b00111 !
b01000 -
b01010 .
b01001 /
1*
#400
0*
#405
b01100 +
b01101 ,
b1000 $
b0111011 (
b01000 !
b01001 -
b01011 .
b01010 /
1*
#410
0*
#415
b01101 +
b01110 ,
b1001 $
b0111010 (
b01001 !
b01010 -
b01100 .
b01011 /
1*
#420
0*
#425
b01110 +
b01111 ,
b1010 $
b0111001 (
b01010 !
b01011 -
b01101 .
b01100 /
1*
#430
0*
#435
b01111 +
b10000 ,
b1011 $
b0111000 (
b01011 !
b01100 -
b01110 .
b01101 /
1*
#440
0*
#445
b10000 +
b10001 ,
b1100 $
b0110111 (
b01100 !
b01101 -
b01111 .
b01110 /
1*
#450
0*
#455
b10001 +
b10010 ,
b1101 $
b0110110 (
b01101 !
b01110 -
b10000 .
b01111 /
1*
#460
0*
#465
b10010 +
b10011 ,
b1110 $
b0110101 (
b01110 !
b01111 -
b10001 .
b10000 /
1*
#470
0*
#475
b10011 +
b10100 ,
b1111 $
b0110100 (
b01111 !
b10000 -
b10010 .
b10001 /
1*
#480
0*
#485
b10100 +
b10101 ,
b0111111 #
b0000 $
b0111111 %
b0110011 (
b10000 !
b10001 -
b10011 .
b10010 /
1*
#490
0*
#495
b10101 +
b10110 ,
b0000000 #
b0001 $
b0000000 %
b0110010 (
b10001 !
b10010 -
b10100 .
b10011 /
1*
#500
0*
#505
b10110 +
b10111 ,
b0010 $
b0110001 (
b10010 !
b10011 -
b10101 .
b10100 /
1*
#510
0*
#515
b10111 +
b11000 ,
b0011 $
b0110000 (
b10011 !
b10100 -
b10110 .
b10101 /
1*
#520
0*
#525
b11000 +
b11001 ,
b0100 $
b0101111 (
b10100 !
b10101 -
b10111 .
b10110 /
1*
#530
0*
#535
b11001 +
b11010 ,
b0101 $
b0101110 (
b10101 !
b10110 -
b11000 .
b10111 /
1*
#540
0*
#545
b11010 +
b11011 ,
b0110 $
b0101101 (
b10110 !
b10111 -
b11001 .
b11000 /
1*
#550
0*
#555
b11011 +
b11100 ,
b0111 $
b0101100 (
b10111 !
b11000 -
b11010 .
b11001 /
1*
#560
0*
#565
b11100 +
b11101 ,
b1000 $
b0101011 (
b11000 !
b11001 -
b11011 .
b11010 /
1*
#570
0*
#575
b11101 +
b11110 ,
b1001 $
b0101010 (
b11001 !
b11010 -
b11100 .
b11011 /
1*
#580
0*
#585
b11110 +
b11111 ,
b1010 $
b0101001 (
b11010 !
b11011 -
b11101 .
b11100 /
1*
#590
0*
#595
b11111 +
b00000 ,
b1011 $
b0101000 (
b11011 !
b11100 -
b11110 .
b11101 /
1*
#600
0*
#605
b00000 +
b00001 ,
b1100 $
b0100111 (
b11100 !
b11101 -
b11111 .
b11110 /
1*
#610
0*
#615
b00001 +
b00010 ,
b1101 $
b0100110 (
b11101 !
b11110 -
b00000 .
b11111 /
1*
#620
0*
#625
b00010 +
b00011 ,
b1110 $
b0100101 (
b11110 !
b11111 -
b00001 .
b00000 /
1*
#630
0*
#635
b00011 +
b00100 ,
b1111 $
b0100100 (
b11111 !
b00000 -
b00010 .
b00001 /
1*
#640
0*
#645
b00100 +
b00101 ,
b0111111 #
b0000 $
b0111111 %
b0100011 (
b00000 !
b00001 -
b00011 .
b00010 /
1*
#650
0*
#655
b00101 +
b00110 ,
b0000000 #
b0001 $
b0000000 %
b0100010 (
b00001 !
b00010 -
b00100 .
b00011 /
1*
#660
0*
#665
b00110 +
b00111 ,
b0010 $
b0100001 (
b00010 !
b00011 -
b00101 .
b00100 /
1*
#670
0*
#675
b00111 +
b01000 ,
b0011 $
b0100000 (
b00011 !
b00100 -
b00110 .
b00101 /
1*
#680
0*
#685
b01000 +
b01001 ,
b0100 $
b0011111 (
b00100 !
b00101 -
b00111 .
b00110 /
1*
#690
0*
#695
b01001 +
b01010 ,
b0101 $
b0011110 (
b00101 !
b00110 -
b01000 .
b00111 /
1*
#700
0*
#705
b01010 +
b01011 ,
b0110 $
b0011101 (
b00110 !
b00111 -
b01001 .
b01000 /
1*
#710
0*
#715
b01011 +
b01100 ,
b0111 $
b0011100 (
b00111 !
b01000 -
b01010 .
b01001 /
1*
#720
0*
#725
b01100 +
b01101 ,
b1000 $
b0011011 (
b01000 !
b01001 -
b01011 .
b01010 /
1*
#730
0*
#735
b01101 +
b01110 ,
b1001 $
b0011010 (
b01001 !
b01010 -
b01100 .
b01011 /
1*
#740
0*
#745
b01110 +
b01111 ,
b1010 $
b0011001 (
b01010 !
b01011 -
b01101 .
b01100 /
1*
#750
0*
#755
b01111 +
b10000 ,
b1011 $
b0011000 (
b01011 !
b01100 -
b01110 .
b01101 /
1*
#760
0*
#765
b10000 +
b10001 ,
b1100 $
b0010111 (
b01100 !
b01101 -
b01111 .
b01110 /
1*
#770
0*
#775
b10001 +
b10010 ,
b1101 $
b0010110 (
b01101 !
b01110 -
b10000 .
b01111 /
1*
#780
0*
#785
b10010 +
b10011 ,
b1110 $
b0010101 (
b01110 !
b01111 -
b10001 .
b10000 /
1*
#790
0*
#795
b10011 +
b10100 ,
b1111 $
b0010100 (
b01111 !
b10000 -
b10010 .
b10001 /
1*
#800
0*
#805
b10100 +
b10101 ,
b0111111 #
b0000 $
b0111111 %
b0010011 (
b10000 !
b10001 -
b10011 .
b10010 /
1*
#810
0*
#815
b10101 +
b10110 ,
b0000000 #
b0001 $
b0000000 %
b0010010 (
b10001 !
b10010 -
b10100 .
b10011 /
1*
#820
0*
#825
b10110 +
b10111 ,
b0010 $
b0010001 (
b10010 !
b10011 -
b10101 .
b10100 /
1*
#830
0*
#835
b10111 +
b11000 ,
b0011 $
b0010000 (
b10011 !
b10100 -
b10110 .
b10101 /
1*
#840
0*
#845
b11000 +
b11001 ,
b0100 $
b0001111 (
b10100 !
b10101 -
b10111 .
b10110 /
1*
#850
0*
#855
b11001 +
b11010 ,
b0101 $
b0001110 (
b10101 !
b10110 -
b11000 .
b10111 /
1*
#860
0*
#865
b11010 +
b11011 ,
b0110 $
b0001101 (
b10110 !
b10111 -
b11001 .
b11000 /
1*
#870
0*
#875
b11011 +
b11100 ,
b0111 $
b0001100 (
b10111 !
b11000 -
b11010 .
b11001 /
1*
#880
0*
#885
b11100 +
b11101 ,
b1000 $
b0001011 (
b11000 !
b11001 -
b11011 .
b11010 /
1*
#890
0*
#895
b11101 +
b11110 ,
b1001 $
b0001010 (
b11001 !
b11010 -
b11100 .
b11011 /
1*
#900
0*
#905
b11110 +
b11111 ,
b1010 $
b0001001 (
b11010 !
b11011 -
b11101 .
b11100 /
1*
#910
0*
#915
b11111 +
b00000 ,
b1011 $
b0001000 (
b11011 !
b11100 -
b11110 .
b11101 /
1*
#920
0*
#925
b00000 +
b00001 ,
b1100 $
b0000111 (
b11100 !
b11101 -
b11111 .
b11110 /
1*
#930
0*
#935
b00001 +
b00010 ,
b1101 $
b0000110 (
b11101 !
b11110 -
b00000 .
b11111 /
1*
#940
0*
#945
b00010 +
b00011 ,
b1110 $
b0000101 (
b11110 !
b11111 -
b00001 .
b00000 /
1*
#950
0*
#955
b00011 +
b00100 ,
b1111 $
b0000100 (
b11111 !
b00000 -
b00010 .
b00001 /
1*
#960
0*
#965
b00100 +
b00101 ,
b0111111 #
b0000 $
b0111111 %
b0000011 (
b00000 !
b00001 -
b00011 .
b00010 /
1*
#970
0*
#975
b00101 +
b00110 ,
b0000000 #
b0001 $
b0000000 %
b0000010 (
b00001 !
b00010 -
b00100 .
b00011 /
1*
#980
0*
#985
b00110 +
b00111 ,
b0010 $
b0000001 (
b00010 !
b00011 -
b00101 .
b00100 /
1*
#990
0*
#995
b00111 +
b01000 ,
b0011 $
1'
b0000000 (
b00011 !
b00100 -
b00110 .
b00101 /
1*
#1000
0*
#1005
b01000 +
b01001 ,
b0100 $
0'
b1100011 (
b00100 !
b00101 -
b00111 .
b00110 /
1*
#1010
0*
#1015
b01001 +
b01010 ,
b0101 $
b1100010 (
b00101 !
b00110 -
b01000 .
b00111 /
1*
#1020
0*
#1025
b01010 +
b01011 ,
b0110 $
b1100001 (
b00110 !
b00111 -
b01001 .
b01000 /
1*
#1030
0*
#1035
b01011 +
b01100 ,
b0111 $
b1100000 (
b00111 !
b01000 -
b01010 .
b01001 /
1*
#1040
0*
#1045
b01100 +
b01101 ,
b1000 $
b1011111 (
b01000 !
b01001 -
b01011 .
b01010 /
1*
#1050
0*
#1055
b01101 +
b01110 ,
b1001 $
b1011110 (
b01001 !
b01010 -
b01100 .
b01011 /
1*
#1060
0*
#1065
b01110 +
b01111 ,
b1010 $
b1011101 (
b01010 !
b01011 -
b01101 .
b01100 /
1*
#1070
0*
#1075
b01111 +
b10000 ,
b1011 $
b1011100 (
b01011 !
b01100 -
b01110 .
b01101 /
1*
#1080
0*
#1085
b10000 +
b10001 ,
b1100 $
b1011011 (
b01100 !
b01101 -
b01111 .
b01110 /
1*
#1090
0*
#1095
b10001 +
b10010 ,
b1101 $
b1011010 (
b01101 !
b01110 -
b10000 .
b01111 /
1*
#1100
0*
#1105
b10010 +
b10011 ,
b1110 $
b1011001 (
b01110 !
b01111 -
b10001 .
b10000 /
1*
#1110
0*
#1115
b10011 +
b10100 ,
b1111 $
b1011000 (
b01111 !
b10000 -
b10010 .
b10001 /
1*
#1120
0*
#1125
b10100 +
b10101 ,
b0111111 #
b0000 $
b0111111 %
b1010111 (
b10000 !
b10001 -
b10011 .
b10010 /
1*
#1130
0*
#1135
b10101 +
b10110 ,
b0000000 #
b0001 $
b0000000 %
b1010110 (
b10001 !
b10010 -
b10100 .
b10011 /
1*
#1140
0*
#1145
b10110 +
b10111 ,
b0010 $
b1010101 (
b10010 !
b10011 -
b10101 .
b10100 /
1*
#1150
0*
#1155
b10111 +
b11000 ,
b0011 $
b1010100 (
b10011 !
b10100 -
b10110 .
b10101 /
1*
#1160
0*
#1165
b11000 +
b11001 ,
b0100 $
b1010011 (
b10100 !
b10101 -
b10111 .
b10110 /
1*
#1170
0*
#1175
b11001 +
b11010 ,
b0101 $
b1010010 (
b10101 !
b10110 -
b11000 .
b10111 /
1*
#1180
0*
#1185
b11010 +
b11011 ,
b0110 $
b1010001 (
b10110 !
b10111 -
b11001 .
b11000 /
1*
#1190
0*
#1195
b11011 +
b11100 ,
b0111 $
b1010000 (
b10111 !
b11000 -
b11010 .
b11001 /
1*
#1200
0*
#1205
b11100 +
b11101 ,
b1000 $
b1001111 (
b11000 !
b11001 -
b11011 .
b11010 /
1*
#1210
0*
#1215
b11101 +
b11110 ,
b1001 $
b1001110 (
b11001 !
b11010 -
b11100 .
b11011 /
1*
#1220
0*
#1225
b11110 +
b11111 ,
b1010 $
b1001101 (
b11010 !
b11011 -
b11101 .
b11100 /
1*
#1230
0*
#1235
b11111 +
b00000 ,
b1011 $
b1001100 (
b11011 !
b11100 -
b11110 .
b11101 /
1*
#1240
0*
#1245
b00000 +
b00001 ,
b1100 $
b1001011 (
b11100 !
b11101 -
b11111 .
b11110 /
1*
#1250
0*
#1255
b00001 +
b00010 ,
b1101 $
b1001010 (
b11101 !
b11110 -
b00000 .
b11111 /
1*
#1260
0*
#1265
b00010 +
b00011 ,
b1110 $
b1001001 (
b11110 !
b11111 -
b00001 .
b00000 /
1*
#1270
0*
#1275
b00011 +
b00100 ,
b1111 $
b1001000 (
b11111 !
b00000 -
b00010 .
b00001 /
1*
#1280
0*
#1285
b00100 +
b00101 ,
b0111111 #
b0000 $
b0111111 %
b1000111 (
b00000 !
b00001 -
b00011 .
b00010 /
1*
#1290
0*
#1295
b00101 +
b00110 ,
b0000000 #
b0001 $
b0000000 %
b1000110 (
b00001 !
b00010 -
b00100 .
b00011 /
1*
#1300
0*
#1305
b00110 +
b00111 ,
b0010 $
b1000101 (
b00010 !
b00011 -
b00101 .
b00100 /
1*
#1310
0*
#1315
b00111 +
b01000 ,
b0011 $
b1000100 (
b00011 !
b00100 -
b00110 .
b00101 /
1*
#1320
0*
#1325
b01000 +
b01001 ,
b0100 $
b1000011 (
b00100 !
b00101 -
b00111 .
b00110 /
1*
#1330
0*
#1335
b01001 +
b01010 ,
b0101 $
b1000010 (
b00101 !
b00110 -
b01000 .
b00111 /
1*
#1340
0*
#1345
b01010 +
b01011 ,
b0110 $
b1000001 (
b00110 !
b00111 -
b01001 .
b01000 /
1*
#1350
0*
#1355
b01011 +
b01100 ,
b0111 $
b1000000 (
b00111 !
b01000 -
b01010 .
b01001 /
1*
#1360
0*
#1365
b01100 +
b01101 ,
b1000 $
b0111111 (
b01000 !
b01001 -
b01011 .
b01010 /
1*
#1370
0*
#1375
b01101 +
b01110 ,
b1001 $
b0111110 (
b01001 !
b01010 -
b01100 .
b01011 /
1*
#1380
0*
#1385
b01110 +
b01111 ,
b1010 $
b0111101 (
b01010 !
b01011 -
b01101 .
b01100 /
1*
#1390
0*
#1395
b01111 +
b10000 ,
b1011 $
b0111100 (
b01011 !
b01100 -
b01110 .
b01101 /
1*
#1400
0*
#1405
b10000 +
b10001 ,
b1100 $
b0111011 (
b01100 !
b01101 -
b01111 .
b01110 /
1*
#1410
0*
#1415
b10001 +
b10010 ,
b1101 $
b0111010 (
b01101 !
b01110 -
b10000 .
b01111 /
1*
#1420
0*
#1425
b10010 +
b10011 ,
b1110 $
b0111001 (
b01110 !
b01111 -
b10001 .
b10000 /
1*
#1430
0*
#1435
b10011 +
b10100 ,
b1111 $
b0111000 (
b01111 !
b10000 -
b10010 .
b10001 /
1*
#1440
0*
#1445
b10100 +
b10101 ,
b0111111 #
b0000 $
b0111111 %
b0110111 (
b10000 !
b10001 -
b10011 .
b10010 /
1*
#1450
0*
#1455
b10101 +
b10110 ,
b0000000 #
b0001 $
b0000000 %
b0110110 (
b10001 !
b10010 -
b10100 .
b10011 /
1*
#1460
0*
#1465
b10110 +
b10111 ,
b0010 $
b0110101 (
b10010 !
b10011 -
b10101 .
b10100 /
1*
#1470
0*
#1475
b10111 +
b11000 ,
b0011 $
b0110100 (
b10011 !
b10100 -
b10110 .
b10101 /
1*
#1480
0*
#1485
b11000 +
b11001 ,
b0100 $
b0110011 (
b10100 !
b10101 -
b10111 .
b10110 /
1*
#1490
0*
#1495
b11001 +
b11010 ,
b0101 $
b0110010 (
b10101 !
b10110 -
b11000 .
b10111 /
1*
#1500
0*
#1505
b11010 +
b11011 ,
b0110 $
b0110001 (
b10110 !
b10111 -
b11001 .
b11000 /
1*
#1510
0*
#1515
b11011 +
b11100 ,
b0111 $
b0110000 (
b10111 !
b11000 -
b11010 .
b11001 /
1*
#1520
0*
#1525
b11100 +
b11101 ,
b1000 $
b0101111 (
b11000 !
b11001 -
b11011 .
b11010 /
1*
#1530
0*
#1535
b11101 +
b11110 ,
b1001 $
b0101110 (
b11001 !
b11010 -
b11100 .
b11011 /
1*
#1540
0*
#1545
b11110 +
b11111 ,
b1010 $
b0101101 (
b11010 !
b11011 -
b11101 .
b11100 /
1*
#1550
0*
#1555
b11111 +
b00000 ,
b1011 $
b0101100 (
b11011 !
b11100 -
b11110 .
b11101 /
1*
#1560
0*
#1565
b00000 +
b00001 ,
b1100 $
b0101011 (
b11100 !
b11101 -
b11111 .
b11110 /
1*
#1570
0*
#1575
b00001 +
b00010 ,
b1101 $
b0101010 (
b11101 !
b11110 -
b00000 .
b11111 /
1*
#1580
0*
#1585
b00010 +
b00011 ,
b1110 $
b0101001 (
b11110 !
b11111 -
b00001 .
b00000 /
1*
#1590
0*
#1595
b00011 +
b00100 ,
b1111 $
b0101000 (
b11111 !
b00000 -
b00010 .
b00001 /
1*
#1600
0*
#1605
b00100 +
b00101 ,
b0111111 #
b0000 $
b0111111 %
b0100111 (
b00000 !
b00001 -
b00011 .
b00010 /
1*
#1610
0*
#1615
b00101 +
b00110 ,
b0000000 #
b0001 $
b0000000 %
b0100110 (
b00001 !
b00010 -
b00100 .
b00011 /
1*
#1620
0*
#1625
b00110 +
b00111 ,
b0010 $
b0100101 (
b00010 !
b00011 -
b00101 .
b00100 /
1*
#1630
0*
#1635
b00111 +
b01000 ,
b0011 $
b0100100 (
b00011 !
b00100 -
b00110 .
b00101 /
1*
#1640
0*
#1645
b01000 +
b01001 ,
b0100 $
b0100011 (
b00100 !
b00101 -
b00111 .
b00110 /
1*
#1650
0*
#1655
b01001 +
b01010 ,
b0101 $
b0100010 (
b00101 !
b00110 -
b01000 .
b00111 /
1*
#1660
0*
#1665
b01010 +
b01011 ,
b0110 $
b0100001 (
b00110 !
b00111 -
b01001 .
b01000 /
1*
#1670
0*
#1675
b01011 +
b01100 ,
b0111 $
b0100000 (
b00111 !
b01000 -
b01010 .
b01001 /
1*
#1680
0*
#1685
b01100 +
b01101 ,
b1000 $
b0011111 (
b01000 !
b01001 -
b01011 .
b01010 /
1*
#1690
0*
#1695
b01101 +
b01110 ,
b1001 $
b0011110 (
b01001 !
b01010 -
b01100 .
b01011 /
1*
#1700
0*
#1705
b01110 +
b01111 ,
b1010 $
b0011101 (
b01010 !
b01011 -
b01101 .
b01100 /
1*
#1710
0*
#1715
b01111 +
b10000 ,
b1011 $
b0011100 (
b01011 !
b01100 -
b01110 .
b01101 /
1*
#1720
0*
#1725
b10000 +
b10001 ,
b1100 $
b0011011 (
b01100 !
b01101 -
b01111 .
b01110 /
1*
#1730
0*
#1735
b10001 +
b10010 ,
b1101 $
b0011010 (
b01101 !
b01110 -
b10000 .
b01111 /
1*
#1740
0*
#1745
b10010 +
b10011 ,
b1110 $
b0011001 (
b01110 !
b01111 -
b10001 .
b10000 /
1*
#1750
0*
#1755
b10011 +
b10100 ,
b1111 $
b0011000 (
b01111 !
b10000 -
b10010 .
b10001 /
1*
#1760
0*
#1765
b10100 +
b10101 ,
b0111111 #
b0000 $
b0111111 %
b0010111 (
b10000 !
b10001 -
b10011 .
b10010 /
1*
#1770
0*
#1775
b10101 +
b10110 ,
b0000000 #
b0001 $
b0000000 %
b0010110 (
b10001 !
b10010 -
b10100 .
b10011 /
1*
#1780
0*
#1785
b10110 +
b10111 ,
b0010 $
b0010101 (
b10010 !
b10011 -
b10101 .
b10100 /
1*
#1790
0*
#1795
b10111 +
b11000 ,
b0011 $
b0010100 (
b10011 !
b10100 -
b10110 .
b10101 /
1*
#1800
0*
#1805
b11000 +
b11001 ,
b0100 $
b0010011 (
b10100 !
b10101 -
b10111 .
b10110 /
1*
#1810
0*
#1815
b11001 +
b11010 ,
b0101 $
b0010010 (
b10101 !
b10110 -
b11000 .
b10111 /
1*
#1820
0*
#1825
b11010 +
b11011 ,
b0110 $
b0010001 (
b10110 !
b10111 -
b11001 .
b11000 /
1*
#1830
0*
#1835
b11011 +
b11100 ,
b0111 $
b0010000 (
b10111 !
b11000 -
b11010 .
b11001 /
1*
#1840
0*
#1845
b11100 +
b11101 ,
b1000 $
b0001111 (
b11000 !
b11001 -
b11011 .
b11010 /
1*
#1850
0*
#1855
b11101 +
b11110 ,
b1001 $
b0001110 (
b11001 !
b11010 -
b11100 .
b11011 /
1*
#1860
0*
#1865
b11110 +
b11111 ,
b1010 $
b0001101 (
b11010 !
b11011 -
b11101 .
b11100 /
1*
#1870
0*
#1875
b11111 +
b00000 ,
b1011 $
b0001100 (
b11011 !
b11100 -
b11110 .
b11101 /
1*
#1880
0*
#1885
b00000 +
b00001 ,
b1100 $
b0001011 (
b11100 !
b11101 -
b11111 .
b11110 /
1*
#1890
0*
#1895
b00001 +
b00010 ,
b1101 $
b0001010 (
b11101 !
b11110 -
b00000 .
b11111 /
1*
#1900
0*
#1905
b00010 +
b00011 ,
b1110 $
b0001001 (
b11110 !
b11111 -
b00001 .
b00000 /
1*
#1910
0*
#1915
b00011 +
b00100 ,
b1111 $
b0001000 (
b11111 !
b00000 -
b00010 .
b00001 /
1*
#1920
0*
#1925
b00100 +
b00101 ,
b0111111 #
b0000 $
b0111111 %
b0000111 (
b00000 !
b00001 -
b00011 .
b00010 /
1*
#1930
0*
#1935
b00101 +
b00110 ,
b0000000 #
b0001 $
b0000000 %
b0000110 (
b00001 !
b00010 -
b00100 .
b00011 /
1*
#1940
0*
#1945
b00110 +
b00111 ,
b0010 $
b0000101 (
b00010 !
b00011 -
b00101 .
b00100 /
1*
#1950
0*
#1955
b00111 +
b01000 ,
b0011 $
b0000100 (
b00011 !
b00100 -
b00110 .
b00101 /
1*
#1960
0*
#1965
b01000 +
b01001 ,
b0100 $
b0000011 (
b00100 !
b00101 -
b00111 .
b00110 /
1*
#1970
0*
#1975
b01001 +
b01010 ,
b0101 $
b0000010 (
b00101 !
b00110 -
b01000 .
b00111 /
1*
#1980
0*
#1985
b01010 +
b01011 ,
b0110 $
b0000001 (
b00110 !
b00111 -
b01001 .
b01000 /
1*
#1990
0*
#1995
b01011 +
b01100 ,
b0111 $
1'
b0000000 (
b00111 !
b01000 -
b01010 .
b01001 /
1*
#2000
0*
#2005
b01100 +
b01101 ,
b1000 $
0'
b1100011 (
b01000 !
b01001 -
b01011 .
b01010 /
1*
#2010
0*
#2015
b01101 +
b01110 ,
b1001 $
b1100010 (
b01001 !
b01010 -
b01100 .
b01011 /
1*
#2020
0*
#2025
b01110 +
b01111 ,
b1010 $
b1100001 (
b01010 !
b01011 -
b01101 .
b01100 /
1*
#2030
0*
#2035
b01111 +
b10000 ,
b1011 $
b1100000 (
b01011 !
b01100 -
b01110 .
b01101 /
1*
#2040
0*
#2045
b10000 +
b10001 ,
b1100 $
b1011111 (
b01100 !
b01101 -
b01111 .
b01110 /
1*
#2050
0*
#2055
b10001 +
b10010 ,
b1101 $
b1011110 (
b01101 !
b01110 -
b10000 .
b01111 /
1*
#2060
0*
#2065
b10010 +
b10011 ,
b1110 $
b1011101 (
b01110 !
b01111 -
b10001 .
b10000 /
1*
#2070
0*
#2075
b10011 +
b10100 ,
b1111 $
b1011100 (
b01111 !
b10000 -
b10010 .
b10001 /
1*
#2080
0*
#2085
b10100 +
b10101 ,
b0111111 #
b0000 $
b0111111 %
b1011011 (
b10000 !
b10001 -
b10011 .
b10010 /
1*
#2090
0*
#2095
b10101 +
b10110 ,
b0000000 #
b0001 $
b0000000 %
b1011010 (
b10001 !
b10010 -
b10100 .
b10011 /
1*
#2100
0*
#2105
b10110 +
b10111 ,
b0010 $
b1011001 (
b10010 !
b10011 -
b10101 .
b10100 /
1*
#2110
0*
#2115
b10111 +
b11000 ,
b0011 $
b1011000 (
b10011 !
b10100 -
b10110 .
b10101 /
1*
#2120
0*
#2125
b11000 +
b11001 ,
b0100 $
b1010111 (
b10100 !
b10101 -
b10111 .
b10110 /
1*
#2130
0*
#2135
b11001 +
b11010 ,
b0101 $
b1010110 (
b10101 !
b10110 -
b11000 .
b10111 /
1*
#2140
0*
#2145
b11010 +
b11011 ,
b0110 $
b1010101 (
b10110 !
b10111 -
b11001 .
b11000 /
1*
#2150
0*
#2155
b11011 +
b11100 ,
b0111 $
b1010100 (
b10111 !
b11000 -
b11010 .
b11001 /
1*
#2160
0*
#2165
b11100 +
b11101 ,
b1000 $
b1010011 (
b11000 !
b11001 -
b11011 .
b11010 /
1*
#2170
0*
#2175
b11101 +
b11110 ,
b1001 $
b1010010 (
b11001 !
b11010 -
b11100 .
b11011 /
1*
#2180
0*
#2185
b11110 +
b11111 ,
b1010 $
b1010001 (
b11010 !
b11011 -
b11101 .
b11100 /
1*
#2190
0*
#2195
b11111 +
b00000 ,
b1011 $
b1010000 (
b11011 !
b11100 -
b11110 .
b11101 /
1*
#2200
0*
#2205
b00000 +
b00001 ,
b1100 $
b1001111 (
b11100 !
b11101 -
b11111 .
b11110 /
1*
#2210
0*
#2215
b00001 +
b00010 ,
b1101 $
b1001110 (
b11101 !
b11110 -
b00000 .
b11111 /
1*
#2220
0*
#2225
b00010 +
b00011 ,
b1110 $
b1001101 (
b11110 !
b11111 -
b00001 .
b00000 /
1*
#2230
0*
#2235
b00011 +
b00100 ,
b1111 $
b1001100 (
b11111 !
b00000 -
b00010 .
b00001 /
1*
#2240
0*
#2245
b00100 +
b00101 ,
b0111111 #
b0000 $
b0111111 %
b1001011 (
b00000 !
b00001 -
b00011 .
b00010 /
1*
#2250
0*
