Lab2/seven_segment.vcd
$scope module SevenSegment $end
$var wire 4 ! value $end
$var wire 7 " abcdefg $end
$var wire 1 # sys_clk $end
$enddefinitions $end
$dumpvars
$end
#0
b0000 !
b0000000 "
0#
b0111111 "
#5
1#
#10
0#
#15
b0001 !
b0000000 "
1#
#20
0#
#25
b0010 !
1#
#30
0#
#35
b0011 !
1#
#40
0#
#45
b0100 !
1#
#50
0#
#55
b0101 !
1#
#60
0#
#65
b0110 !
1#
#70
0#
#75
b0111 !
1#
#80
0#
#85
b1000 !
1#
#90
0#
#95
b1001 !
1#
#100
0#
#105
b1010 !
1#
#110
0#
#115
b1011 !
1#
#120
0#
#125
b1100 !
1#
#130
0#
#135
b1101 !
1#
#140
0#
#145
b1110 !
1#
#150
0#
#155
b1111 !
1#
#160
0#
#165
1#
b0000 !
b0000000 "
0#
