Lab2/seven_segment.vcd
$scope module SevenSegment $end
$var wire 4 ! value $end
$var wire 7 " abcdefg $end
$var wire 1 # sys_clk $end
$enddefinitions $end
$dumpvars
$end
#0
b0000 !
b0000000 "
0#
b0111111 "
#5
1#
#10
0#
#15
b0001 !
b0000110 "
1#
#20
0#
#25
b0010 !
b1011011 "
1#
#30
0#
#35
b0011 !
b1001111 "
1#
#40
0#
#45
b0100 !
b1100110 "
1#
#50
0#
#55
b0101 !
b1101101 "
1#
#60
0#
#65
b0110 !
b1111101 "
1#
#70
0#
#75
b0111 !
b0000111 "
1#
#80
0#
#85
b1000 !
b1111111 "
1#
#90
0#
#95
b1001 !
b1101111 "
1#
#100
0#
#105
b1010 !
b1110111 "
1#
#110
0#
#115
b1011 !
b1111100 "
1#
#120
0#
#125
b1100 !
b0111001 "
1#
#130
0#
#135
b1101 !
b1011110 "
1#
#140
0#
#145
b1110 !
b1111001 "
1#
#150
0#
#155
b1111 !
b1110001 "
1#
#160
0#
#165
1#
b0000 !
b0000000 "
0#
